<svg width="726" height="9" viewBox="0 0 726 9" fill="none" xmlns="http://www.w3.org/2000/svg">
<line x1="4.5" y1="4.5" x2="244.19" y2="4.50002" stroke="#394089" stroke-width="9" stroke-linecap="round"/>
<line x1="236.611" y1="4.5" x2="476.301" y2="4.50002" stroke="#F15D5B" stroke-width="9" stroke-linecap="round"/>
<line x1="481.81" y1="4.5" x2="721.5" y2="4.50002" stroke="#FAC610" stroke-width="9" stroke-linecap="round"/>
</svg>
